…
kam <- weather_dl(station_ids = 51423, start = "2018-02-01", end = "2018-04-15")
```

``` R
## As of weathercan v0.3.0 time display is either local time or UTC See Details under `weather_dl()` (`?weather_dl()`) for more information. This message is shown
## once per session
```

``` r

kam
```

``` R
## # A tibble: 1,776 × 38
##    station_name station_id station_operator prov    lat   lon  elev climate_id WMO_id TC_id date       time                 year month   day hour   qual   temp
##    <chr>             <dbl> <chr>            <chr> <dbl> <dbl> <dbl> <chr>      <chr>  <chr> <date>     <dttm>              <dbl> <int> <int> <time> <chr> <dbl>
##  1 KAMLOOPS A        51423 NAV Canada       BC     50.7 -120.  345. 1163781    71887  YKA   2018-02-01 2018-02-01 00:00:00  2018     2     1 00:00  <NA>    0.2
##  2 KAMLOOPS A        51423 NAV Canada       BC     50.7 -120.  345. 1163781    71887  YKA   2018-02-01 2018-02-01 01:00:00  2018     2     1 01:00  <NA>   -0.8
##  3 KAMLOOPS A        51423 NAV Canada       BC     50.7 -120.  345. 1163781    71887  YKA   2018-02-01 2018-02-01 02:00:00  2018     2     1 02:00  <NA>   -0.4
##  4 KAMLOOPS A        51423 NAV Canada       BC     50.7 -120.  345. 1163781    71887  YKA   2018-02-01 2018-02-01 03:00:00  2018     2     1 03:00  <NA>   -0.7
##  5 KAMLOOPS A        51423 NAV Canada       BC     50.7 -120.  345. 1163781    71887  YKA   2018-02-01 2018-02-01 04:00:00  2018     2     1 04:00  <NA>   -1  
##  6 KAMLOOPS A        51423 NAV Canada       BC     50.7 -120.  345. 1163781    71887  YKA   2018-02-01 2018-02-01 05:00:00  2018     2     1 05:00  <NA>   -1  
##  7 KAMLOOPS A        51423 NAV Canada       BC     50.7 -120.  345. 1163781    71887  YKA   2018-02-01 2018-02-01 06:00:00  2018     2     1 06:00  <NA>   -1  
##  8 KAMLOOPS A        51423 NAV Canada       BC     50.7 -120.  345. 1163781    71887  YKA   2018-02-01 2018-02-01 07:00:00  2018     2     1 07:00  <NA>   -0.9
##  9 KAMLOOPS A        51423 NAV Canada       BC     50.7 -120.  345. 1163781    71887  YKA   2018-02-01 2018-02-01 08:00:00  2018     2     1 08:00  <NA>   -0.9
## 10 KAMLOOPS A        51423 NAV Canada       BC     50.7 -120.  345. 1163781    71887  YKA   2018-02-01 2018-02-01 09:00:00  2018     2     1 09:00  <NA>   -0.7
## # ℹ 1,766 more rows
```
…
``` r

n
```

``` R
## # A tibble: 26 × 313
##    location_name             prov  composite_stations period_of_record period daily_average_c daily_average_c_code stddev_mean_monthly_…¹ stddev_mean_monthly_…²
##    <chr>                     <chr> <chr>              <chr>            <chr>            <dbl> <chr>                                 <dbl> <chr>                 
##  1 WINNIPEG RICHARDSON (AIR… MB    WINNIPEG A CS (50… Normal           Jan              -16.3 A                                       3.6 A                     
##  2 WINNIPEG RICHARDSON (AIR… MB    WINNIPEG A CS (50… Normal           Feb              -14.1 A                                       4   A                     
##  3 WINNIPEG RICHARDSON (AIR… MB    WINNIPEG A CS (50… Normal           Mar               -6.1 A                                       3.7 A                     
##  4 WINNIPEG RICHARDSON (AIR… MB    WINNIPEG A CS (50… Normal           Apr                3.8 A                                       2.9 A                     
##  5 WINNIPEG RICHARDSON (AIR… MB    WINNIPEG A CS (50… Normal           May               11.1 A                                       1.9 A                     
##  6 WINNIPEG RICHARDSON (AIR… MB    WINNIPEG A CS (50… Normal           Jun               17.1 A                                       1.5 A                     
##  7 WINNIPEG RICHARDSON (AIR… MB    WINNIPEG A CS (50… Normal           Jul               19.5 A                                       1.4 A                     
##  8 WINNIPEG RICHARDSON (AIR… MB    WINNIPEG A CS (50… Normal           Aug               18.7 A                                       1.5 A                     
##  9 WINNIPEG RICHARDSON (AIR… MB    WINNIPEG A CS (50… Normal           Sep               13.3 A                                       1.6 A                     
## 10 WINNIPEG RICHARDSON (AIR… MB    WINNIPEG A CS (50… Normal           Oct                5.1 A                                       2.1 A                     
## # ℹ 16 more rows
## # ℹ abbreviated names: ¹​stddev_mean_monthly_temperature_c, ²​stddev_mean_monthly_temperature_c_code
## # ℹ 304 more variables: daily_maximum_c <dbl>, daily_maximum_c_code <chr>, daily_minimum_c <dbl>, daily_minimum_c_code <chr>, maximum_daily_mean_c <dbl>,
## #   maximum_daily_mean_c_code <lgl>, maximum_daily_mean_c_date <date>, maximum_daily_mean_c_date_code <lgl>, minimum_daily_mean_c <dbl>,
## #   minimum_daily_mean_c_code <lgl>, minimum_daily_mean_c_date <date>, minimum_daily_mean_c_date_code <lgl>, extreme_maximum_c <dbl>,
## #   extreme_maximum_c_code <lgl>, extreme_maximum_c_date <date>, extreme_maximum_c_date_code <lgl>, minimum_daily_maximum_c <dbl>,
## #   minimum_daily_maximum_c_code <lgl>, minimum_daily_maximum_c_date <date>, minimum_daily_maximum_c_date_code <lgl>, maximum_daily_minimum_c <dbl>, …
```
…
