…
``` R
## As of weathercan v0.3.0 time display is either local time or UTC
## See Details under ?weather_dl for more information.
## This message is shown once per session
```

``` r

kam
```

``` R
## # A tibble: 1,776 × 38
##    station_name station_id station_operator prov    lat   lon  elev climate_id WMO_id TC_id date       time                year  month day   hour  qual  weather
##    <chr>             <dbl> <chr>            <chr> <dbl> <dbl> <dbl> <chr>      <chr>  <chr> <date>     <dttm>              <chr> <chr> <chr> <chr> <chr> <chr>  
##  1 KAMLOOPS A        51423 NAV Canada       BC     50.7 -120.  345. 1163781    71887  YKA   2018-02-01 2018-02-01 00:00:00 2018  02    01    00:00 <NA>  <NA>   
##  2 KAMLOOPS A        51423 NAV Canada       BC     50.7 -120.  345. 1163781    71887  YKA   2018-02-01 2018-02-01 01:00:00 2018  02    01    01:00 <NA>  Snow   
##  3 KAMLOOPS A        51423 NAV Canada       BC     50.7 -120.  345. 1163781    71887  YKA   2018-02-01 2018-02-01 02:00:00 2018  02    01    02:00 <NA>  <NA>   
##  4 KAMLOOPS A        51423 NAV Canada       BC     50.7 -120.  345. 1163781    71887  YKA   2018-02-01 2018-02-01 03:00:00 2018  02    01    03:00 <NA>  <NA>   
##  5 KAMLOOPS A        51423 NAV Canada       BC     50.7 -120.  345. 1163781    71887  YKA   2018-02-01 2018-02-01 04:00:00 2018  02    01    04:00 <NA>  Cloudy 
##  6 KAMLOOPS A        51423 NAV Canada       BC     50.7 -120.  345. 1163781    71887  YKA   2018-02-01 2018-02-01 05:00:00 2018  02    01    05:00 <NA>  <NA>   
##  7 KAMLOOPS A        51423 NAV Canada       BC     50.7 -120.  345. 1163781    71887  YKA   2018-02-01 2018-02-01 06:00:00 2018  02    01    06:00 <NA>  <NA>   
##  8 KAMLOOPS A        51423 NAV Canada       BC     50.7 -120.  345. 1163781    71887  YKA   2018-02-01 2018-02-01 07:00:00 2018  02    01    07:00 <NA>  Cloudy 
##  9 KAMLOOPS A        51423 NAV Canada       BC     50.7 -120.  345. 1163781    71887  YKA   2018-02-01 2018-02-01 08:00:00 2018  02    01    08:00 <NA>  <NA>   
## 10 KAMLOOPS A        51423 NAV Canada       BC     50.7 -120.  345. 1163781    71887  YKA   2018-02-01 2018-02-01 09:00:00 2018  02    01    09:00 <NA>  <NA>   
## # ℹ 1,766 more rows
```
…
``` R
## The most current normals available for download by weathercan are '1991-2020'

## Using composite locations: WINNIPEG RICHARDSON (AIRPORT)
```

``` r

n
```

``` R
## # A tibble: 325 × 314
##    location_name                 prov  composite_stations      period_of_record element_group period daily_average_c daily_average_c_code stddev_mean_monthly_…¹
##    <chr>                         <chr> <chr>                   <chr>            <chr>         <chr>            <dbl> <chr>                                 <dbl>
##  1 WINNIPEG RICHARDSON (AIRPORT) MB    WINNIPEG A CS (502S001… Normal           Temperature   Jan              -16.3 A                                       3.6
##  2 WINNIPEG RICHARDSON (AIRPORT) MB    WINNIPEG A CS (502S001… Normal           Temperature   Feb              -14.1 A                                       4  
##  3 WINNIPEG RICHARDSON (AIRPORT) MB    WINNIPEG A CS (502S001… Normal           Temperature   Mar               -6.1 A                                       3.7
##  4 WINNIPEG RICHARDSON (AIRPORT) MB    WINNIPEG A CS (502S001… Normal           Temperature   Apr                3.8 A                                       2.9
##  5 WINNIPEG RICHARDSON (AIRPORT) MB    WINNIPEG A CS (502S001… Normal           Temperature   May               11.1 A                                       1.9
##  6 WINNIPEG RICHARDSON (AIRPORT) MB    WINNIPEG A CS (502S001… Normal           Temperature   Jun               17.1 A                                       1.5
##  7 WINNIPEG RICHARDSON (AIRPORT) MB    WINNIPEG A CS (502S001… Normal           Temperature   Jul               19.5 A                                       1.4
##  8 WINNIPEG RICHARDSON (AIRPORT) MB    WINNIPEG A CS (502S001… Normal           Temperature   Aug               18.7 A                                       1.5
##  9 WINNIPEG RICHARDSON (AIRPORT) MB    WINNIPEG A CS (502S001… Normal           Temperature   Sep               13.3 A                                       1.6
## 10 WINNIPEG RICHARDSON (AIRPORT) MB    WINNIPEG A CS (502S001… Normal           Temperature   Oct                5.1 A                                       2.1
## # ℹ 315 more rows
## # ℹ abbreviated name: ¹​stddev_mean_monthly_temperature_c
## # ℹ 305 more variables: stddev_mean_monthly_temperature_c_code <chr>, daily_maximum_c <dbl>, daily_maximum_c_code <chr>, daily_minimum_c <dbl>,
## #   daily_minimum_c_code <chr>, maximum_daily_mean_c <dbl>, maximum_daily_mean_c_code <lgl>, maximum_daily_mean_c_date <date>,
## #   maximum_daily_mean_c_date_code <lgl>, minimum_daily_mean_c <dbl>, minimum_daily_mean_c_code <lgl>, minimum_daily_mean_c_date <date>,
## #   minimum_daily_mean_c_date_code <lgl>, extreme_maximum_c <dbl>, extreme_maximum_c_code <lgl>, extreme_maximum_c_date <date>,
## #   extreme_maximum_c_date_code <lgl>, minimum_daily_maximum_c <dbl>, minimum_daily_maximum_c_code <lgl>, minimum_daily_maximum_c_date <date>, …
```
…
