…
Working with list-columns
-------------------------

We can unnest the results then plot them \#\#\# unnest()

``` r
resids <- unnest(pancan_df_nest, resids)
resids
```

    ## # A tibble: 177,545 × 12
    ##    station_name station_id   prov   lat     lon  elev climat_id WMO_id
    ##           <chr>      <dbl> <fctr> <dbl>   <dbl> <dbl>     <chr>  <chr>
    ## 1   AGASSIZ CDA        707     BC 49.24 -121.76    15   1100120       
    ## 2   AGASSIZ CDA        707     BC 49.24 -121.76    15   1100120       
    ## 3   AGASSIZ CDA        707     BC 49.24 -121.76    15   1100120       
    ## 4   AGASSIZ CDA        707     BC 49.24 -121.76    15   1100120       
    ## 5   AGASSIZ CDA        707     BC 49.24 -121.76    15   1100120       
    ## 6   AGASSIZ CDA        707     BC 49.24 -121.76    15   1100120       
    ## 7   AGASSIZ CDA        707     BC 49.24 -121.76    15   1100120       
    ## 8   AGASSIZ CDA        707     BC 49.24 -121.76    15   1100120       
    ## 9   AGASSIZ CDA        707     BC 49.24 -121.76    15   1100120       
    ## 10  AGASSIZ CDA        707     BC 49.24 -121.76    15   1100120       
    ## # ... with 177,535 more rows, and 4 more variables: TC_id <chr>,
    ## #   mean_temp <dbl>, date <date>, resid <dbl>
…
Looking at the predictions
--------------------------

``` r
preds <- pancan_df_nest %>% 
  mutate(model = map(data, clim_model)) %>%
  mutate(preds = map2(data, model, add_predictions)) %>%
  unnest(preds)
preds
```

    ## # A tibble: 177,545 × 12
    ##    station_name station_id   prov   lat     lon  elev climat_id WMO_id
    ##           <chr>      <dbl> <fctr> <dbl>   <dbl> <dbl>     <chr>  <chr>
    ## 1   AGASSIZ CDA        707     BC 49.24 -121.76    15   1100120       
    ## 2   AGASSIZ CDA        707     BC 49.24 -121.76    15   1100120       
    ## 3   AGASSIZ CDA        707     BC 49.24 -121.76    15   1100120       
    ## 4   AGASSIZ CDA        707     BC 49.24 -121.76    15   1100120       
    ## 5   AGASSIZ CDA        707     BC 49.24 -121.76    15   1100120       
    ## 6   AGASSIZ CDA        707     BC 49.24 -121.76    15   1100120       
    ## 7   AGASSIZ CDA        707     BC 49.24 -121.76    15   1100120       
    ## 8   AGASSIZ CDA        707     BC 49.24 -121.76    15   1100120       
    ## 9   AGASSIZ CDA        707     BC 49.24 -121.76    15   1100120       
    ## 10  AGASSIZ CDA        707     BC 49.24 -121.76    15   1100120       
    ## # ... with 177,535 more rows, and 4 more variables: TC_id <chr>,
    ## #   mean_temp <dbl>, date <date>, pred <dbl>
…
