…
```
## As of weathercan v1.0.0 the default normals are 1991-2020. Note that these normals are in a
## different format from previous years. See ?normals_dl for more details or use `normals_years =
## '1981-2010'` to revert to the previous set of normals. This message is shown once per session
## 
## 
## The most current normals available for download by weathercan are '1991-2020'
## Using composite locations: BRANDON
```

```
## # A tibble: 26 × 35
##    period daily_average_c daily_average_c_code daily_maximum_c daily_maximum_c_code
##    <chr>            <dbl> <chr>                          <dbl> <chr>               
##  1 Jan              -16.7 A                              -11.4 A                   
##  2 Feb              -14.1 A                               -8.5 A                   
##  3 Mar               -7   A                               -1.6 A                   
##  4 Apr                3.1 A                                9.6 A                   
##  5 May               10.3 A                               17.4 A                   
##  6 Jun               16.2 A                               22.6 A                   
##  7 Jul               18.4 A                               24.9 A                   
##  8 Aug               17.7 A                               25.1 A                   
##  9 Sep               12.2 A                               19.5 A                   
## 10 Oct                4   A                               10.1 A                   
## # ℹ 16 more rows
## # ℹ 30 more variables: daily_minimum_c <dbl>, daily_minimum_c_code <chr>,
## #   maximum_daily_mean_c <dbl>, maximum_daily_mean_c_code <lgl>,
## #   maximum_daily_mean_c_date <date>, maximum_daily_mean_c_date_code <lgl>,
## #   minimum_daily_mean_c <dbl>, minimum_daily_mean_c_code <lgl>,
## #   minimum_daily_mean_c_date <date>, minimum_daily_mean_c_date_code <lgl>,
## #   minimum_daily_maximum_c <dbl>, minimum_daily_maximum_c_code <lgl>, …
```
…
