…
``` r
finches_temperature %>%
  select(date, time, temp) %>%
  filter(is.na(temp))
```

```
## # A tibble: 195 × 3
##    date       time                 temp
##    <date>     <dttm>              <dbl>
##  1 2016-03-08 2016-03-08 12:10:10    NA
##  2 2016-03-08 2016-03-08 12:10:11    NA
##  3 2016-03-08 2016-03-08 12:10:13    NA
##  4 2016-03-08 2016-03-08 12:10:14    NA
##  5 2016-03-08 2016-03-08 12:12:26    NA
##  6 2016-03-08 2016-03-08 12:12:28    NA
##  7 2016-03-08 2016-03-08 12:12:29    NA
##  8 2016-03-08 2016-03-08 12:12:30    NA
##  9 2016-03-08 2016-03-08 12:12:32    NA
## 10 2016-03-08 2016-03-08 12:12:33    NA
## # ℹ 185 more rows
```
…
