…
``` r
n <- normals_dl(climate_ids = "5023222")
```

```
## The most current normals available for download by weathercan are '1991-2020'
## Using composite locations: WINNIPEG RICHARDSON (AIRPORT)
```

``` r
n
```

```
## # A tibble: 26 × 313
##    location_name          prov  composite_stations period_of_record period daily_average_c
##    <chr>                  <chr> <chr>              <chr>            <chr>            <dbl>
##  1 WINNIPEG RICHARDSON (… MB    WINNIPEG A CS (50… Normal           Jan              -16.3
##  2 WINNIPEG RICHARDSON (… MB    WINNIPEG A CS (50… Normal           Feb              -14.1
##  3 WINNIPEG RICHARDSON (… MB    WINNIPEG A CS (50… Normal           Mar               -6.1
##  4 WINNIPEG RICHARDSON (… MB    WINNIPEG A CS (50… Normal           Apr                3.8
##  5 WINNIPEG RICHARDSON (… MB    WINNIPEG A CS (50… Normal           May               11.1
##  6 WINNIPEG RICHARDSON (… MB    WINNIPEG A CS (50… Normal           Jun               17.1
##  7 WINNIPEG RICHARDSON (… MB    WINNIPEG A CS (50… Normal           Jul               19.5
##  8 WINNIPEG RICHARDSON (… MB    WINNIPEG A CS (50… Normal           Aug               18.7
##  9 WINNIPEG RICHARDSON (… MB    WINNIPEG A CS (50… Normal           Sep               13.3
## 10 WINNIPEG RICHARDSON (… MB    WINNIPEG A CS (50… Normal           Oct                5.1
## # ℹ 16 more rows
```
…
``` r
n_orig
```

```
## # A tibble: 69,068 × 19
##    LOCATION_NAME PROVINCE_OR_TERRITORY PERIOD_OF_RECORD ELEMENT_GROUP NORMALS_ELEMENT     
##    <chr>         <chr>                 <chr>            <chr>         <chr>               
##  1 BANFF         AB                    Normal           Temperature   Daily Average (°C)  
##  2 BANFF         AB                    Normal           Temperature   StdDev Mean Monthly…
##  3 BANFF         AB                    Normal           Temperature   Daily Maximum (°C)  
##  4 BANFF         AB                    Normal           Temperature   Daily Minimum (°C)  
##  5 BANFF         AB                    Normal           Temperature   Maximum Daily Mean …
##  6 BANFF         AB                    Normal           Temperature   Maximum Daily Mean …
##  7 BANFF         AB                    Normal           Temperature   Minimum Daily Mean …
##  8 BANFF         AB                    Normal           Temperature   Minimum Daily Mean …
##  9 BANFF         AB                    Normal           Temperature   Extreme Maximum (°C)
## 10 BANFF         AB                    Normal           Temperature   Extreme Maximum (°C…
## # ℹ 69,058 more rows
```

You can also pre-select specific measurements by `measurement_type` (also called ELEMENT GROUP by ECCC). These must be one of those listed in the `normals_measurement_types` data frame.


``` r
normals_measurement_types
```

```
## # A tibble: 158 × 3
##    normals   measurement_type measurement                      
##    <chr>     <chr>            <chr>                            
##  1 1991-2020 Temperature      daily_average_c                  
##  2 1991-2020 Temperature      stddev_mean_monthly_temperature_c
##  3 1991-2020 Temperature      daily_maximum_c                  
##  4 1991-2020 Temperature      daily_minimum_c                  
##  5 1991-2020 Temperature      maximum_daily_mean_c             
##  6 1991-2020 Temperature      maximum_daily_mean_c_date        
##  7 1991-2020 Temperature      minimum_daily_mean_c             
##  8 1991-2020 Temperature      minimum_daily_mean_c_date        
##  9 1991-2020 Temperature      extreme_maximum_c                
## 10 1991-2020 Temperature      extreme_maximum_c_date           
## # ℹ 148 more rows
```
…
## Finding stations with specific measurements

The included data frame, `normals_measurements` contains a list of stations with their corresponding measurements. Be aware that this data might be out of date!


``` r
normals_measurements
```

```
## # A tibble: 376,959 × 6
##    prov  station_name climate_id                normals   measurement_type measurement    
##    <chr> <chr>        <chr>                     <chr>     <chr>            <chr>          
##  1 AB    BANFF        3050520, 3050521, 3050519 1991-2020 Temperature      daily_average_c
##  2 AB    BANFF        3050520, 3050521, 3050519 1991-2020 Temperature      stddev_mean_mo…
##  3 AB    BANFF        3050520, 3050521, 3050519 1991-2020 Temperature      daily_maximum_c
##  4 AB    BANFF        3050520, 3050521, 3050519 1991-2020 Temperature      daily_minimum_c
##  5 AB    BANFF        3050520, 3050521, 3050519 1991-2020 Temperature      maximum_daily_…
##  6 AB    BANFF        3050520, 3050521, 3050519 1991-2020 Temperature      maximum_daily_…
##  7 AB    BANFF        3050520, 3050521, 3050519 1991-2020 Temperature      minimum_daily_…
##  8 AB    BANFF        3050520, 3050521, 3050519 1991-2020 Temperature      minimum_daily_…
##  9 AB    BANFF        3050520, 3050521, 3050519 1991-2020 Temperature      extreme_maximu…
## 10 AB    BANFF        3050520, 3050521, 3050519 1991-2020 Temperature      extreme_maximu…
## # ℹ 376,949 more rows
```
…
For example, if you wanted all `climate_id`s for stations that have data on
temperature for 1991-2020 normals:


``` r
library(stringr) # text pattern matching

# Have a quick look
normals_measurements |>
  filter(str_detect(measurement_type, "Temp"), normals == "1991-2020")
```

```
## # A tibble: 21,528 × 6
##    prov  station_name climate_id                normals   measurement_type measurement    
##    <chr> <chr>        <chr>                     <chr>     <chr>            <chr>          
##  1 AB    BANFF        3050520, 3050521, 3050519 1991-2020 Temperature      daily_average_c
##  2 AB    BANFF        3050520, 3050521, 3050519 1991-2020 Temperature      stddev_mean_mo…
##  3 AB    BANFF        3050520, 3050521, 3050519 1991-2020 Temperature      daily_maximum_c
##  4 AB    BANFF        3050520, 3050521, 3050519 1991-2020 Temperature      daily_minimum_c
##  5 AB    BANFF        3050520, 3050521, 3050519 1991-2020 Temperature      maximum_daily_…
##  6 AB    BANFF        3050520, 3050521, 3050519 1991-2020 Temperature      maximum_daily_…
##  7 AB    BANFF        3050520, 3050521, 3050519 1991-2020 Temperature      minimum_daily_…
##  8 AB    BANFF        3050520, 3050521, 3050519 1991-2020 Temperature      minimum_daily_…
##  9 AB    BANFF        3050520, 3050521, 3050519 1991-2020 Temperature      extreme_maximu…
## 10 AB    BANFF        3050520, 3050521, 3050519 1991-2020 Temperature      extreme_maximu…
## # ℹ 21,518 more rows
```
…
Alternatively, if you wanted all `climate_id`s for stations that have data on
soil temperature for 1981-2010 normals (which is no longer available in the 1991-2020 normals):


``` r
# Have a quick look
normals_measurements |>
  filter(stringr::str_detect(measurement, "soil"), normals == "1981-2010")
```

```
## # A tibble: 314 × 6
##    prov  station_name    climate_id normals   measurement_type measurement          
##    <chr> <chr>           <chr>      <chr>     <chr>            <chr>                
##  1 AB    BEAVERLODGE CDA 3070560    1981-2010 <NA>             soil_temp_am_5       
##  2 AB    BEAVERLODGE CDA 3070560    1981-2010 <NA>             soil_temp_am_5_code  
##  3 AB    BEAVERLODGE CDA 3070560    1981-2010 <NA>             soil_temp_am_10      
##  4 AB    BEAVERLODGE CDA 3070560    1981-2010 <NA>             soil_temp_am_10_code 
##  5 AB    BEAVERLODGE CDA 3070560    1981-2010 <NA>             soil_temp_am_20      
##  6 AB    BEAVERLODGE CDA 3070560    1981-2010 <NA>             soil_temp_am_20_code 
##  7 AB    BEAVERLODGE CDA 3070560    1981-2010 <NA>             soil_temp_am_50      
##  8 AB    BEAVERLODGE CDA 3070560    1981-2010 <NA>             soil_temp_am_50_code 
##  9 AB    BEAVERLODGE CDA 3070560    1981-2010 <NA>             soil_temp_am_100     
## 10 AB    BEAVERLODGE CDA 3070560    1981-2010 <NA>             soil_temp_am_100_code
## # ℹ 304 more rows
```
…
