…
You can look through this data frame directly, or you can use the `stations_search` function:


```r
stations_search("Kamloops")
```

```
## # A tibble: 40 × 16
##    prov  station_name         station_id climate_id WMO_id TC_id   lat   lon  elev tz        interval start   end normals normals_1981_2010 normals_1971_2000
##    <chr> <chr>                     <dbl> <chr>       <dbl> <chr> <dbl> <dbl> <dbl> <chr>     <chr>    <dbl> <dbl> <lgl>   <lgl>             <lgl>            
##  1 BC    KAMLOOPS                   1274 1163779        NA <NA>   50.7 -120.  379. Etc/GMT+8 day       1878  1982 FALSE   FALSE             FALSE            
##  2 BC    KAMLOOPS                   1274 1163779        NA <NA>   50.7 -120.  379. Etc/GMT+8 month     1878  1982 FALSE   FALSE             FALSE            
##  3 BC    KAMLOOPS A                 1275 1163780     71887 YKA    50.7 -120.  345. Etc/GMT+8 day       1951  2013 TRUE    TRUE              TRUE             
##  4 BC    KAMLOOPS A                 1275 1163780     71887 YKA    50.7 -120.  345. Etc/GMT+8 hour      1953  2013 TRUE    TRUE              TRUE             
##  5 BC    KAMLOOPS A                 1275 1163780     71887 YKA    50.7 -120.  345. Etc/GMT+8 month     1951  2013 TRUE    TRUE              TRUE             
##  6 BC    KAMLOOPS A                51423 1163781     71887 YKA    50.7 -120.  345. Etc/GMT+8 day       2013  2021 FALSE   FALSE             FALSE            
##  7 BC    KAMLOOPS A                51423 1163781     71887 YKA    50.7 -120.  345. Etc/GMT+8 hour      2013  2021 FALSE   FALSE             FALSE            
##  8 BC    KAMLOOPS AFTON MINES       1276 1163790        NA <NA>   50.7 -120.  701  Etc/GMT+8 day       1977  1993 FALSE   FALSE             TRUE             
##  9 BC    KAMLOOPS AFTON MINES       1276 1163790        NA <NA>   50.7 -120.  701  Etc/GMT+8 month     1977  1993 FALSE   FALSE             TRUE             
## 10 BC    KAMLOOPS AUT              42203 1163842     71741 ZKA    50.7 -120.  345  Etc/GMT+8 day       2006  2021 FALSE   FALSE             FALSE            
## # … with 30 more rows
```
…
You can specify more than one interval:


```r
stations_search("Kamloops", interval = c("hour", "month"))
```

```
## # A tibble: 21 × 16
##    prov  station_name            station_id climate_id WMO_id TC_id   lat   lon  elev tz        interval start   end normals normals_1981_2010 normals_1971_2000
##    <chr> <chr>                        <dbl> <chr>       <dbl> <chr> <dbl> <dbl> <dbl> <chr>     <chr>    <dbl> <dbl> <lgl>   <lgl>             <lgl>            
##  1 BC    KAMLOOPS                      1274 1163779        NA <NA>   50.7 -120.  379. Etc/GMT+8 month     1878  1982 FALSE   FALSE             FALSE            
##  2 BC    KAMLOOPS A                    1275 1163780     71887 YKA    50.7 -120.  345. Etc/GMT+8 hour      1953  2013 TRUE    TRUE              TRUE             
##  3 BC    KAMLOOPS A                    1275 1163780     71887 YKA    50.7 -120.  345. Etc/GMT+8 month     1951  2013 TRUE    TRUE              TRUE             
##  4 BC    KAMLOOPS A                   51423 1163781     71887 YKA    50.7 -120.  345. Etc/GMT+8 hour      2013  2021 FALSE   FALSE             FALSE            
##  5 BC    KAMLOOPS AFTON MINES          1276 1163790        NA <NA>   50.7 -120.  701  Etc/GMT+8 month     1977  1993 FALSE   FALSE             TRUE             
##  6 BC    KAMLOOPS AUT                 42203 1163842     71741 ZKA    50.7 -120.  345  Etc/GMT+8 hour      2006  2021 FALSE   FALSE             FALSE            
##  7 BC    KAMLOOPS AUT                 42203 1163842     71741 ZKA    50.7 -120.  345  Etc/GMT+8 month     2006  2006 FALSE   FALSE             FALSE            
##  8 BC    KAMLOOPS CDA                  1277 1163810        NA <NA>   50.7 -120.  345  Etc/GMT+8 month     1949  1977 FALSE   FALSE             FALSE            
##  9 BC    KAMLOOPS CHERRY CREEK         1278 1163814        NA <NA>   50.7 -121.  556. Etc/GMT+8 month     1970  1974 FALSE   FALSE             FALSE            
## 10 BC    KAMLOOPS CHERRY CREEK 2       1279 1163815        NA <NA>   50.6 -121.  701  Etc/GMT+8 month     1974  1977 FALSE   FALSE             FALSE            
## # … with 11 more rows
```
…
```
## As of weathercan v0.3.0 time display is either local time or UTC
## See Details under ?weather_dl for more information.
## This message is shown once per session
```

```r
kam
```

```
## # A tibble: 1,104 × 37
##    station_name station_id station_operator prov    lat   lon  elev climate_id WMO_id TC_id date       time                year  month day   hour  weather  hmdx
##    <chr>             <dbl> <lgl>            <chr> <dbl> <dbl> <dbl> <chr>      <chr>  <chr> <date>     <dttm>              <chr> <chr> <chr> <chr> <chr>   <dbl>
##  1 KAMLOOPS A        51423 NA               BC     50.7 -120.  345. 1163781    71887  YKA   2016-01-01 2016-01-01 00:00:00 2016  01    01    00:00 <NA>       NA
##  2 KAMLOOPS A        51423 NA               BC     50.7 -120.  345. 1163781    71887  YKA   2016-01-01 2016-01-01 01:00:00 2016  01    01    01:00 Mostly…    NA
##  3 KAMLOOPS A        51423 NA               BC     50.7 -120.  345. 1163781    71887  YKA   2016-01-01 2016-01-01 02:00:00 2016  01    01    02:00 <NA>       NA
##  4 KAMLOOPS A        51423 NA               BC     50.7 -120.  345. 1163781    71887  YKA   2016-01-01 2016-01-01 03:00:00 2016  01    01    03:00 <NA>       NA
##  5 KAMLOOPS A        51423 NA               BC     50.7 -120.  345. 1163781    71887  YKA   2016-01-01 2016-01-01 04:00:00 2016  01    01    04:00 Cloudy     NA
##  6 KAMLOOPS A        51423 NA               BC     50.7 -120.  345. 1163781    71887  YKA   2016-01-01 2016-01-01 05:00:00 2016  01    01    05:00 <NA>       NA
##  7 KAMLOOPS A        51423 NA               BC     50.7 -120.  345. 1163781    71887  YKA   2016-01-01 2016-01-01 06:00:00 2016  01    01    06:00 <NA>       NA
##  8 KAMLOOPS A        51423 NA               BC     50.7 -120.  345. 1163781    71887  YKA   2016-01-01 2016-01-01 07:00:00 2016  01    01    07:00 Cloudy     NA
##  9 KAMLOOPS A        51423 NA               BC     50.7 -120.  345. 1163781    71887  YKA   2016-01-01 2016-01-01 08:00:00 2016  01    01    08:00 <NA>       NA
## 10 KAMLOOPS A        51423 NA               BC     50.7 -120.  345. 1163781    71887  YKA   2016-01-01 2016-01-01 09:00:00 2016  01    01    09:00 Snow       NA
## # … with 1,094 more rows, and 19 more variables: hmdx_flag <chr>, precip_amt <dbl>, precip_amt_flag <chr>, pressure <dbl>, pressure_flag <chr>, rel_hum <dbl>,
## #   rel_hum_flag <chr>, temp <dbl>, temp_dew <dbl>, temp_dew_flag <chr>, temp_flag <chr>, visib <dbl>, visib_flag <chr>, wind_chill <dbl>,
## #   wind_chill_flag <chr>, wind_dir <dbl>, wind_dir_flag <chr>, wind_spd <dbl>, wind_spd_flag <chr>
```

You can also download data from multiple stations at once:


```r
kam.pg <- weather_dl(station_ids = c(48248, 51423), start = "2016-01-01", end = "2016-02-15")

kam.pg
```

```
## # A tibble: 2,208 × 37
##    station_name station_id station_operator prov    lat   lon  elev climate_id WMO_id TC_id date       time                year  month day   hour  weather  hmdx
##    <chr>             <dbl> <lgl>            <chr> <dbl> <dbl> <dbl> <chr>      <chr>  <chr> <date>     <dttm>              <chr> <chr> <chr> <chr> <chr>   <dbl>
##  1 PRINCE GEOR…      48248 NA               BC     53.9 -123.   680 1096453    71302  VXS   2016-01-01 2016-01-01 00:00:00 2016  01    01    00:00 <NA>       NA
##  2 PRINCE GEOR…      48248 NA               BC     53.9 -123.   680 1096453    71302  VXS   2016-01-01 2016-01-01 01:00:00 2016  01    01    01:00 <NA>       NA
##  3 PRINCE GEOR…      48248 NA               BC     53.9 -123.   680 1096453    71302  VXS   2016-01-01 2016-01-01 02:00:00 2016  01    01    02:00 <NA>       NA
##  4 PRINCE GEOR…      48248 NA               BC     53.9 -123.   680 1096453    71302  VXS   2016-01-01 2016-01-01 03:00:00 2016  01    01    03:00 <NA>       NA
##  5 PRINCE GEOR…      48248 NA               BC     53.9 -123.   680 1096453    71302  VXS   2016-01-01 2016-01-01 04:00:00 2016  01    01    04:00 <NA>       NA
##  6 PRINCE GEOR…      48248 NA               BC     53.9 -123.   680 1096453    71302  VXS   2016-01-01 2016-01-01 05:00:00 2016  01    01    05:00 <NA>       NA
##  7 PRINCE GEOR…      48248 NA               BC     53.9 -123.   680 1096453    71302  VXS   2016-01-01 2016-01-01 06:00:00 2016  01    01    06:00 <NA>       NA
##  8 PRINCE GEOR…      48248 NA               BC     53.9 -123.   680 1096453    71302  VXS   2016-01-01 2016-01-01 07:00:00 2016  01    01    07:00 <NA>       NA
##  9 PRINCE GEOR…      48248 NA               BC     53.9 -123.   680 1096453    71302  VXS   2016-01-01 2016-01-01 08:00:00 2016  01    01    08:00 <NA>       NA
## 10 PRINCE GEOR…      48248 NA               BC     53.9 -123.   680 1096453    71302  VXS   2016-01-01 2016-01-01 09:00:00 2016  01    01    09:00 <NA>       NA
## # … with 2,198 more rows, and 19 more variables: hmdx_flag <chr>, precip_amt <dbl>, precip_amt_flag <chr>, pressure <dbl>, pressure_flag <chr>, rel_hum <dbl>,
## #   rel_hum_flag <chr>, temp <dbl>, temp_dew <dbl>, temp_dew_flag <chr>, temp_flag <chr>, visib <dbl>, visib_flag <chr>, wind_chill <dbl>,
## #   wind_chill_flag <chr>, wind_dir <dbl>, wind_dir_flag <chr>, wind_spd <dbl>, wind_spd_flag <chr>
```
…
<img src="unnamed-chunk-12-1.png" title="plot of chunk unnamed-chunk-12" alt="plot of chunk unnamed-chunk-12" style="display: block; margin: auto;" />

Or you can use the vector created above:


```r
stn_vec_df <- weather_dl(station_ids = stn_vector, start = "2016-01-01", end = "2016-02-15")

stn_vec_df
```

```
## # A tibble: 3,312 × 37
##    station_name station_id station_operator prov    lat   lon  elev climate_id WMO_id TC_id date       time                year  month day   hour  weather  hmdx
##    <chr>             <dbl> <lgl>            <chr> <dbl> <dbl> <dbl> <chr>      <chr>  <chr> <date>     <dttm>              <chr> <chr> <chr> <chr> <chr>   <dbl>
##  1 CRESTON CAM…       6838 NA               BC     49.1 -116.  641. 114B1F0    71770  WJR   2016-01-01 2016-01-01 00:00:00 2016  01    01    00:00 <NA>       NA
##  2 CRESTON CAM…       6838 NA               BC     49.1 -116.  641. 114B1F0    71770  WJR   2016-01-01 2016-01-01 01:00:00 2016  01    01    01:00 <NA>       NA
##  3 CRESTON CAM…       6838 NA               BC     49.1 -116.  641. 114B1F0    71770  WJR   2016-01-01 2016-01-01 02:00:00 2016  01    01    02:00 <NA>       NA
##  4 CRESTON CAM…       6838 NA               BC     49.1 -116.  641. 114B1F0    71770  WJR   2016-01-01 2016-01-01 03:00:00 2016  01    01    03:00 <NA>       NA
##  5 CRESTON CAM…       6838 NA               BC     49.1 -116.  641. 114B1F0    71770  WJR   2016-01-01 2016-01-01 04:00:00 2016  01    01    04:00 <NA>       NA
##  6 CRESTON CAM…       6838 NA               BC     49.1 -116.  641. 114B1F0    71770  WJR   2016-01-01 2016-01-01 05:00:00 2016  01    01    05:00 <NA>       NA
##  7 CRESTON CAM…       6838 NA               BC     49.1 -116.  641. 114B1F0    71770  WJR   2016-01-01 2016-01-01 06:00:00 2016  01    01    06:00 <NA>       NA
##  8 CRESTON CAM…       6838 NA               BC     49.1 -116.  641. 114B1F0    71770  WJR   2016-01-01 2016-01-01 07:00:00 2016  01    01    07:00 <NA>       NA
##  9 CRESTON CAM…       6838 NA               BC     49.1 -116.  641. 114B1F0    71770  WJR   2016-01-01 2016-01-01 08:00:00 2016  01    01    08:00 <NA>       NA
## 10 CRESTON CAM…       6838 NA               BC     49.1 -116.  641. 114B1F0    71770  WJR   2016-01-01 2016-01-01 09:00:00 2016  01    01    09:00 <NA>       NA
## # … with 3,302 more rows, and 19 more variables: hmdx_flag <chr>, precip_amt <dbl>, precip_amt_flag <chr>, pressure <dbl>, pressure_flag <chr>, rel_hum <dbl>,
## #   rel_hum_flag <chr>, temp <dbl>, temp_dew <dbl>, temp_dew_flag <chr>, temp_flag <chr>, visib <dbl>, visib_flag <chr>, wind_chill <dbl>,
## #   wind_chill_flag <chr>, wind_dir <dbl>, wind_dir_flag <chr>, wind_spd <dbl>, wind_spd_flag <chr>
```
…
