…
``` {.r}
w <- weather(station_ids = c(50821, 51097), 
             start = "2017-01-01", end = "2017-09-01",
             interval = "hour")
```

    ## Warning: All formats failed to parse. No formats found.

    ## Warning: All formats failed to parse. No formats found.

    ## Warning: All formats failed to parse. No formats found.

    ## Warning: All formats failed to parse. No formats found.

    ## # A tibble: 11,712 x 35
    ##    station_name station_id   prov   lat    lon       date                time  year month
    ##  *        <chr>      <dbl> <fctr> <dbl>  <dbl>     <date>              <dttm> <chr> <chr>
    ##  1    BRANDON A      50821     MB 49.91 -99.95 2017-01-01 2017-01-01 00:00:00  2017    01
    ##  2    BRANDON A      50821     MB 49.91 -99.95 2017-01-01 2017-01-01 01:00:00  2017    01
    ##  3    BRANDON A      50821     MB 49.91 -99.95 2017-01-01 2017-01-01 02:00:00  2017    01
    ##  4    BRANDON A      50821     MB 49.91 -99.95 2017-01-01 2017-01-01 03:00:00  2017    01
    ##  5    BRANDON A      50821     MB 49.91 -99.95 2017-01-01 2017-01-01 04:00:00  2017    01
    ##  6    BRANDON A      50821     MB 49.91 -99.95 2017-01-01 2017-01-01 05:00:00  2017    01
    ##  7    BRANDON A      50821     MB 49.91 -99.95 2017-01-01 2017-01-01 06:00:00  2017    01
    ##  8    BRANDON A      50821     MB 49.91 -99.95 2017-01-01 2017-01-01 07:00:00  2017    01
    ##  9    BRANDON A      50821     MB 49.91 -99.95 2017-01-01 2017-01-01 08:00:00  2017    01
    ## 10    BRANDON A      50821     MB 49.91 -99.95 2017-01-01 2017-01-01 09:00:00  2017    01
    ## # ... with 11,702 more rows, and 26 more variables
…
