How much data? • weathercan
…
library(tidyverse)
library(pryr)
library(weathercan)
library(rvest)
library(skimr)

How many months?

m <- stations %>%
  select(station_name, interval, start, end, normals) %>%
  mutate(nmonths = (end - start) * 12)
m

## # A tibble: 26,286 x 6
##    station_name        interval start   end normals nmonths
##    <chr>               <chr>    <int> <int> <lgl>     <dbl>
##  1 DAYSLAND            day       1908  1922 FALSE       168
##  2 DAYSLAND            hour        NA    NA FALSE        NA
##  3 DAYSLAND            month     1908  1922 FALSE       168
##  4 EDMONTON CORONATION day       1978  1979 FALSE        12
##  5 EDMONTON CORONATION hour        NA    NA FALSE        NA
##  6 EDMONTON CORONATION month     1978  1979 FALSE        12
##  7 FLEET               day       1987  1990 FALSE        36
##  8 FLEET               hour        NA    NA FALSE        NA
##  9 FLEET               month     1987  1990 FALSE        36
## 10 GOLDEN VALLEY       day       1987  1998 FALSE       132
## # … with 26,276 more rows
…
