Meteoland • weathercan
…
## Some variables have non-numeric values (spd_max_gust), for stations: 53118, 52758, 48972, 48969, 48728, 48588, 44244, 30475, 29533

##   Replaced all non-numeric entries with NA. Use 'string_as = NULL' to keep as characters (see ?weather_dl).

##   Examples:

##   # A tibble: 180 x 6
##      station_id date       year  month day   spd_max_gust
##           <dbl> <date>     <chr> <chr> <chr> <chr>       
##    1      53118 2015-01-03 2015  01    03    <31         
##    2      53118 2015-01-04 2015  01    04    <31         
##    3      53118 2015-01-14 2015  01    14    <31         
##    4      53118 2015-01-15 2015  01    15    <31         
##    5      53118 2015-01-16 2015  01    16    <31         
##    6      53118 2015-01-18 2015  01    18    <31         
##    7      53118 2015-01-19 2015  01    19    <31         
##    8      53118 2015-01-20 2015  01    20    <31         
##    9      53118 2015-01-21 2015  01    21    <31         
##   10      53118 2015-01-24 2015  01    24    <31         
##   # … with 170 more rows
…
