Using with the tidyverse • weathercan
…
Working with list-columns

We can unnest the results then plot them

unnest()

resids <- unnest(pancan_df_nest, resids)
resids

## # A tibble: 183,815 x 14
## # Groups:   station_name, station_id, prov, lat, lon, elev, climate_id, WMO_id,
## #   TC_id [5]
##    station_name station_id prov    lat   lon  elev climate_id WMO_id TC_id data 
##    <chr>             <dbl> <chr> <dbl> <dbl> <dbl> <chr>      <chr>  <chr> <lis>
##  1 AGASSIZ CDA         707 BC     49.2 -122.    15 1100120    <NA>   <NA>  <tib…
##  2 AGASSIZ CDA         707 BC     49.2 -122.    15 1100120    <NA>   <NA>  <tib…
##  3 AGASSIZ CDA         707 BC     49.2 -122.    15 1100120    <NA>   <NA>  <tib…
##  4 AGASSIZ CDA         707 BC     49.2 -122.    15 1100120    <NA>   <NA>  <tib…
##  5 AGASSIZ CDA         707 BC     49.2 -122.    15 1100120    <NA>   <NA>  <tib…
##  6 AGASSIZ CDA         707 BC     49.2 -122.    15 1100120    <NA>   <NA>  <tib…
##  7 AGASSIZ CDA         707 BC     49.2 -122.    15 1100120    <NA>   <NA>  <tib…
##  8 AGASSIZ CDA         707 BC     49.2 -122.    15 1100120    <NA>   <NA>  <tib…
##  9 AGASSIZ CDA         707 BC     49.2 -122.    15 1100120    <NA>   <NA>  <tib…
## 10 AGASSIZ CDA         707 BC     49.2 -122.    15 1100120    <NA>   <NA>  <tib…
## # … with 183,805 more rows, and 4 more variables: model <list>,
## #   mean_temp <dbl>, date <date>, resid <dbl>
…
Looking at the predictions

preds <- pancan_df_nest %>%
  mutate(model = map(data, clim_model),
         preds = map2(data, model, add_predictions)) %>%
  unnest(preds)
preds

## # A tibble: 183,815 x 15
## # Groups:   station_name, station_id, prov, lat, lon, elev, climate_id, WMO_id,
## #   TC_id [5]
##    station_name station_id prov    lat   lon  elev climate_id WMO_id TC_id data 
##    <chr>             <dbl> <chr> <dbl> <dbl> <dbl> <chr>      <chr>  <chr> <lis>
##  1 AGASSIZ CDA         707 BC     49.2 -122.    15 1100120    <NA>   <NA>  <tib…
##  2 AGASSIZ CDA         707 BC     49.2 -122.    15 1100120    <NA>   <NA>  <tib…
##  3 AGASSIZ CDA         707 BC     49.2 -122.    15 1100120    <NA>   <NA>  <tib…
##  4 AGASSIZ CDA         707 BC     49.2 -122.    15 1100120    <NA>   <NA>  <tib…
##  5 AGASSIZ CDA         707 BC     49.2 -122.    15 1100120    <NA>   <NA>  <tib…
##  6 AGASSIZ CDA         707 BC     49.2 -122.    15 1100120    <NA>   <NA>  <tib…
##  7 AGASSIZ CDA         707 BC     49.2 -122.    15 1100120    <NA>   <NA>  <tib…
##  8 AGASSIZ CDA         707 BC     49.2 -122.    15 1100120    <NA>   <NA>  <tib…
##  9 AGASSIZ CDA         707 BC     49.2 -122.    15 1100120    <NA>   <NA>  <tib…
## 10 AGASSIZ CDA         707 BC     49.2 -122.    15 1100120    <NA>   <NA>  <tib…
## # … with 183,805 more rows, and 5 more variables: model <list>, resids <list>,
## #   mean_temp <dbl>, date <date>, pred <dbl>
…
