Download Weather Data from the Environment and Climate Change Canada Website • weathercan
…
Weather

Once you have your station_id(s) you can download weather data:

kam <- weather_dl(station_ids = 51423, start = "2018-02-01", end = "2018-04-15")
kam

## # A tibble: 1,776 x 35
##    station_name station_id station_operator prov    lat   lon  elev climate_id WMO_id TC_id
##  * <chr>             <dbl> <chr>            <fct> <dbl> <dbl> <dbl> <chr>      <chr>  <chr>
##  1 KAMLOOPS A        51423 NAV Canada       BC     50.7 -120.  345. 1163781    71887  YKA  
##  2 KAMLOOPS A        51423 NAV Canada       BC     50.7 -120.  345. 1163781    71887  YKA  
##  3 KAMLOOPS A        51423 NAV Canada       BC     50.7 -120.  345. 1163781    71887  YKA  
##  4 KAMLOOPS A        51423 NAV Canada       BC     50.7 -120.  345. 1163781    71887  YKA  
##  5 KAMLOOPS A        51423 NAV Canada       BC     50.7 -120.  345. 1163781    71887  YKA  
##  6 KAMLOOPS A        51423 NAV Canada       BC     50.7 -120.  345. 1163781    71887  YKA  
##  7 KAMLOOPS A        51423 NAV Canada       BC     50.7 -120.  345. 1163781    71887  YKA  
##  8 KAMLOOPS A        51423 NAV Canada       BC     50.7 -120.  345. 1163781    71887  YKA  
##  9 KAMLOOPS A        51423 NAV Canada       BC     50.7 -120.  345. 1163781    71887  YKA  
## 10 KAMLOOPS A        51423 NAV Canada       BC     50.7 -120.  345. 1163781    71887  YKA  
## # ... with 1,766 more rows, and 25 more variables
…
