General Usage • weathercan
…
You can look through this data frame directly, or you can use the stations_search function:

stations_search("Kamloops")

## # A tibble: 40 x 12
##      prov         station_name station_id climate_id WMO_id  TC_id   lat
##    <fctr>                <chr>     <fctr>     <fctr> <fctr> <fctr> <dbl>
##  1     BC             KAMLOOPS       1274    1163779   <NA>   <NA> 50.67
##  2     BC             KAMLOOPS       1274    1163779   <NA>   <NA> 50.67
##  3     BC           KAMLOOPS A       1275    1163780  71887    YKA 50.70
##  4     BC           KAMLOOPS A       1275    1163780  71887    YKA 50.70
##  5     BC           KAMLOOPS A       1275    1163780  71887    YKA 50.70
##  6     BC           KAMLOOPS A      51423    1163781  71887    YKA 50.70
##  7     BC           KAMLOOPS A      51423    1163781  71887    YKA 50.70
##  8     BC KAMLOOPS AFTON MINES       1276    1163790   <NA>   <NA> 50.67
##  9     BC KAMLOOPS AFTON MINES       1276    1163790   <NA>   <NA> 50.67
## 10     BC         KAMLOOPS AUT      42203    1163842  71741    ZKA 50.70
## # ... with 30 more rows, and 5 more variables: lon <dbl>, elev <dbl>,
## #   interval <chr>, start <int>, end <int>
…
## # A tibble: 3 x 12
##     prov station_name station_id climate_id WMO_id  TC_id   lat     lon
##   <fctr>        <chr>     <fctr>     <fctr> <fctr> <fctr> <dbl>   <dbl>
## 1     BC   KAMLOOPS A       1275    1163780  71887    YKA  50.7 -120.44
## 2     BC   KAMLOOPS A      51423    1163781  71887    YKA  50.7 -120.45
## 3     BC KAMLOOPS AUT      42203    1163842  71741    ZKA  50.7 -120.44
## # ... with 4 more variables: elev <dbl>, interval <chr>, start <int>,
## #   end <int>

You can specify more than one interval:

stations_search("Kamloops", interval = c("hour", "month"))

## # A tibble: 21 x 12
##      prov            station_name station_id climate_id WMO_id  TC_id
##    <fctr>                   <chr>     <fctr>     <fctr> <fctr> <fctr>
##  1     BC                KAMLOOPS       1274    1163779   <NA>   <NA>
##  2     BC              KAMLOOPS A       1275    1163780  71887    YKA
##  3     BC              KAMLOOPS A       1275    1163780  71887    YKA
##  4     BC              KAMLOOPS A      51423    1163781  71887    YKA
##  5     BC    KAMLOOPS AFTON MINES       1276    1163790   <NA>   <NA>
##  6     BC            KAMLOOPS AUT      42203    1163842  71741    ZKA
##  7     BC            KAMLOOPS AUT      42203    1163842  71741    ZKA
##  8     BC            KAMLOOPS CDA       1277    1163810   <NA>   <NA>
##  9     BC   KAMLOOPS CHERRY CREEK       1278    1163814   <NA>   <NA>
## 10     BC KAMLOOPS CHERRY CREEK 2       1279    1163815   <NA>   <NA>
## # ... with 11 more rows, and 6 more variables: lat <dbl>, lon <dbl>,
## #   elev <dbl>, interval <chr>, start <int>, end <int>
…
Searching a bleeding edge updated list of stations:

s <- stations_all() # Download complete stations list
stations_search("Saskatoon", stn = s) # Specify the new stations list to search

Weather

Once you have your station_id(s) you can download weather data:

kam <- weather(station_ids = 51423, start = "2016-01-01", end = "2016-02-15")
                    
kam

## # A tibble: 1,104 x 35
##    station_name station_id   prov   lat     lon       date
##  *        <chr>      <dbl> <fctr> <dbl>   <dbl>     <date>
##  1   KAMLOOPS A      51423     BC  50.7 -120.45 2016-01-01
##  2   KAMLOOPS A      51423     BC  50.7 -120.45 2016-01-01
##  3   KAMLOOPS A      51423     BC  50.7 -120.45 2016-01-01
##  4   KAMLOOPS A      51423     BC  50.7 -120.45 2016-01-01
##  5   KAMLOOPS A      51423     BC  50.7 -120.45 2016-01-01
##  6   KAMLOOPS A      51423     BC  50.7 -120.45 2016-01-01
##  7   KAMLOOPS A      51423     BC  50.7 -120.45 2016-01-01
##  8   KAMLOOPS A      51423     BC  50.7 -120.45 2016-01-01
##  9   KAMLOOPS A      51423     BC  50.7 -120.45 2016-01-01
## 10   KAMLOOPS A      51423     BC  50.7 -120.45 2016-01-01
## # ... with 1,094 more rows, and 29 more variables: time <dttm>,
## #   year <chr>, month <chr>, day <chr>, hour <chr>, qual <chr>,
## #   weather <chr>, hmdx <dbl>, hmdx_flag <chr>, pressure <dbl>,
## #   pressure_flag <chr>, rel_hum <dbl>, rel_hum_flag <chr>, temp <dbl>,
## #   temp_dew <dbl>, temp_dew_flag <chr>, temp_flag <chr>, visib <dbl>,
## #   visib_flag <chr>, wind_chill <dbl>, wind_chill_flag <chr>,
## #   wind_dir <dbl>, wind_dir_flag <chr>, wind_spd <dbl>,
## #   wind_spd_flag <chr>, elev <dbl>, climat_id <chr>, WMO_id <chr>,
## #   TC_id <chr>

You can also download data from multiple stations at once:

kam.pg <- weather(station_ids = c(48248, 51423), start = "2016-01-01", end = "2016-02-15")
                    
kam.pg

## # A tibble: 2,208 x 35
##                  station_name station_id   prov   lat     lon       date
##  *                      <chr>      <dbl> <fctr> <dbl>   <dbl>     <date>
##  1 PRINCE GEORGE AIRPORT AUTO      48248     BC 53.89 -122.67 2016-01-01
##  2 PRINCE GEORGE AIRPORT AUTO      48248     BC 53.89 -122.67 2016-01-01
##  3 PRINCE GEORGE AIRPORT AUTO      48248     BC 53.89 -122.67 2016-01-01
##  4 PRINCE GEORGE AIRPORT AUTO      48248     BC 53.89 -122.67 2016-01-01
##  5 PRINCE GEORGE AIRPORT AUTO      48248     BC 53.89 -122.67 2016-01-01
##  6 PRINCE GEORGE AIRPORT AUTO      48248     BC 53.89 -122.67 2016-01-01
##  7 PRINCE GEORGE AIRPORT AUTO      48248     BC 53.89 -122.67 2016-01-01
##  8 PRINCE GEORGE AIRPORT AUTO      48248     BC 53.89 -122.67 2016-01-01
##  9 PRINCE GEORGE AIRPORT AUTO      48248     BC 53.89 -122.67 2016-01-01
## 10 PRINCE GEORGE AIRPORT AUTO      48248     BC 53.89 -122.67 2016-01-01
## # ... with 2,198 more rows, and 29 more variables: time <dttm>,
## #   year <chr>, month <chr>, day <chr>, hour <chr>, qual <chr>,
## #   weather <chr>, hmdx <dbl>, hmdx_flag <chr>, pressure <dbl>,
## #   pressure_flag <chr>, rel_hum <dbl>, rel_hum_flag <chr>, temp <dbl>,
## #   temp_dew <dbl>, temp_dew_flag <chr>, temp_flag <chr>, visib <dbl>,
## #   visib_flag <chr>, wind_chill <dbl>, wind_chill_flag <chr>,
## #   wind_dir <dbl>, wind_dir_flag <chr>, wind_spd <dbl>,
## #   wind_spd_flag <chr>, elev <dbl>, climat_id <chr>, WMO_id <chr>,
## #   TC_id <chr>
…
Or you can use the vector created above:

stn_vec_df <- weather(station_ids = stn_vector, start = "2016-01-01", end = "2016-02-15")

stn_vec_df

## # A tibble: 3,312 x 35
##    station_name station_id   prov   lat     lon       date
##  *        <chr>      <chr> <fctr> <dbl>   <dbl>     <date>
##  1    NELSON CS       6839     BC 49.49 -117.31 2016-01-01
##  2    NELSON CS       6839     BC 49.49 -117.31 2016-01-01
##  3    NELSON CS       6839     BC 49.49 -117.31 2016-01-01
##  4    NELSON CS       6839     BC 49.49 -117.31 2016-01-01
##  5    NELSON CS       6839     BC 49.49 -117.31 2016-01-01
##  6    NELSON CS       6839     BC 49.49 -117.31 2016-01-01
##  7    NELSON CS       6839     BC 49.49 -117.31 2016-01-01
##  8    NELSON CS       6839     BC 49.49 -117.31 2016-01-01
##  9    NELSON CS       6839     BC 49.49 -117.31 2016-01-01
## 10    NELSON CS       6839     BC 49.49 -117.31 2016-01-01
## # ... with 3,302 more rows, and 29 more variables: time <dttm>,
## #   year <chr>, month <chr>, day <chr>, hour <chr>, qual <chr>,
## #   weather <chr>, hmdx <dbl>, hmdx_flag <chr>, pressure <dbl>,
## #   pressure_flag <chr>, rel_hum <dbl>, rel_hum_flag <chr>, temp <dbl>,
## #   temp_dew <dbl>, temp_dew_flag <chr>, temp_flag <chr>, visib <dbl>,
## #   visib_flag <chr>, wind_chill <dbl>, wind_chill_flag <chr>,
## #   wind_dir <dbl>, wind_dir_flag <chr>, wind_spd <dbl>,
## #   wind_spd_flag <chr>, elev <dbl>, climat_id <chr>, WMO_id <chr>,
## #   TC_id <chr>
…
