Interpolating • weathercan
…
finches_temperature %>%
  select(date, time, temp) %>%
  filter(is.na(temp))

## # A tibble: 84 × 3
##    date       time                 temp
##    <date>     <dttm>              <dbl>
##  1 2016-03-10 2016-03-10 16:00:12    NA
##  2 2016-03-10 2016-03-10 16:00:33    NA
##  3 2016-03-10 2016-03-10 16:00:36    NA
##  4 2016-03-10 2016-03-10 16:00:39    NA
##  5 2016-03-10 2016-03-10 16:00:42    NA
##  6 2016-03-10 2016-03-10 16:00:45    NA
##  7 2016-03-10 2016-03-10 16:00:48    NA
##  8 2016-03-10 2016-03-10 16:00:51    NA
##  9 2016-03-10 2016-03-10 16:00:54    NA
## 10 2016-03-10 2016-03-10 16:00:57    NA
## # … with 74 more rows
…
