Climate Normals • weathercan
…
Finding stations with specific measurements

The include data frame, normals_measurements contains a list of stations with their corresponding measurements. Be aware that this data might be out of date!

normals_measurements

## # A tibble: 4,561 x 4
##    prov  station_name climate_id measurement                                              
##    <chr> <chr>        <chr>      <chr>                                                    
##  1 AB    ANDREW       3010234    frost_code                                               
##  2 AB    ANDREW       3010234    date_first_fall_frost                                    
##  3 AB    ANDREW       3010234    date_last_spring_frost                                   
##  4 AB    ANDREW       3010234    length_frost_free                                        
##  5 AB    ANDREW       3010234    prob                                                     
##  6 AB    ANDREW       3010234    Probability of first temperature in fall of 0 C or lower…
##  7 AB    ANDREW       3010234    prob_length_frost_free                                   
##  8 AB    ANDREW       3010234    prob_last_spring_temp_below_0_on_date                    
##  9 AB    BROWNFIELD   3010890    frost_code                                               
## 10 AB    BROWNFIELD   3010890    date_first_fall_frost                                    
## # … with 4,551 more rows
…
