General Usage • weathercan
…
You can look through this data frame directly, or you can use the stations_search function:

stations_search("Kamloops")

## # A tibble: 40 x 12
##    prov  station_name station_id climate_id WMO_id TC_id   lat   lon  elev interval start
##    <fct> <chr>        <fct>      <fct>      <fct>  <fct> <dbl> <dbl> <dbl> <chr>    <int>
##  1 BC    KAMLOOPS     1274       1163779    <NA>   <NA>   50.7  -120   379 day       1878
##  2 BC    KAMLOOPS     1274       1163779    <NA>   <NA>   50.7  -120   379 month     1878
##  3 BC    KAMLOOPS A   1275       1163780    71887  YKA    50.7  -120   345 day       1951
##  4 BC    KAMLOOPS A   1275       1163780    71887  YKA    50.7  -120   345 hour      1953
##  5 BC    KAMLOOPS A   1275       1163780    71887  YKA    50.7  -120   345 month     1951
##  6 BC    KAMLOOPS A   51423      1163781    71887  YKA    50.7  -120   345 day       2013
##  7 BC    KAMLOOPS A   51423      1163781    71887  YKA    50.7  -120   345 hour      2013
##  8 BC    KAMLOOPS AF… 1276       1163790    <NA>   <NA>   50.7  -120   701 day       1977
##  9 BC    KAMLOOPS AF… 1276       1163790    <NA>   <NA>   50.7  -120   701 month     1977
## 10 BC    KAMLOOPS AUT 42203      1163842    71741  ZKA    50.7  -120   345 day       2006
## # ... with 30 more rows, and 1 more variable
…
stations_search("Kamloops", interval = "hour")

## # A tibble: 3 x 12
##   prov  station_name station_id climate_id WMO_id TC_id   lat   lon  elev interval start
##   <fct> <chr>        <fct>      <fct>      <fct>  <fct> <dbl> <dbl> <dbl> <chr>    <int>
## 1 BC    KAMLOOPS A   1275       1163780    71887  YKA    50.7  -120   345 hour      1953
## 2 BC    KAMLOOPS A   51423      1163781    71887  YKA    50.7  -120   345 hour      2013
## 3 BC    KAMLOOPS AUT 42203      1163842    71741  ZKA    50.7  -120   345 hour      2006
## # ... with 1 more variable

You can specify more than one interval:

stations_search("Kamloops", interval = c("hour", "month"))

## # A tibble: 21 x 12
##    prov  station_name station_id climate_id WMO_id TC_id   lat   lon  elev interval start
##    <fct> <chr>        <fct>      <fct>      <fct>  <fct> <dbl> <dbl> <dbl> <chr>    <int>
##  1 BC    KAMLOOPS     1274       1163779    <NA>   <NA>   50.7  -120   379 month     1878
##  2 BC    KAMLOOPS A   1275       1163780    71887  YKA    50.7  -120   345 hour      1953
##  3 BC    KAMLOOPS A   1275       1163780    71887  YKA    50.7  -120   345 month     1951
##  4 BC    KAMLOOPS A   51423      1163781    71887  YKA    50.7  -120   345 hour      2013
##  5 BC    KAMLOOPS AF… 1276       1163790    <NA>   <NA>   50.7  -120   701 month     1977
##  6 BC    KAMLOOPS AUT 42203      1163842    71741  ZKA    50.7  -120   345 hour      2006
##  7 BC    KAMLOOPS AUT 42203      1163842    71741  ZKA    50.7  -120   345 month     2006
##  8 BC    KAMLOOPS CDA 1277       1163810    <NA>   <NA>   50.7  -120   345 month     1949
##  9 BC    KAMLOOPS CH… 1278       1163814    <NA>   <NA>   50.7  -121   556 month     1970
## 10 BC    KAMLOOPS CH… 1279       1163815    <NA>   <NA>   50.6  -121   701 month     1974
## # ... with 11 more rows, and 1 more variable
…
Searching a bleeding edge updated list of stations:

s <- stations_dl() # Download complete stations list
stations_search("Saskatoon", stn = s) # Specify the new stations list to search

Weather

Once you have your station_id(s) you can download weather data:

kam <- weather_dl(station_ids = 51423, start = "2016-01-01", end = "2016-02-15")
                    
kam

## # A tibble: 1,104 x 35
##    station_name station_id station_operator prov    lat   lon  elev climate_id WMO_id
##  * <chr>             <dbl> <lgl>            <fct> <dbl> <dbl> <dbl> <chr>      <chr> 
##  1 KAMLOOPS A        51423 NA               BC     50.7  -120   345 1163781    71887 
##  2 KAMLOOPS A        51423 NA               BC     50.7  -120   345 1163781    71887 
##  3 KAMLOOPS A        51423 NA               BC     50.7  -120   345 1163781    71887 
##  4 KAMLOOPS A        51423 NA               BC     50.7  -120   345 1163781    71887 
##  5 KAMLOOPS A        51423 NA               BC     50.7  -120   345 1163781    71887 
##  6 KAMLOOPS A        51423 NA               BC     50.7  -120   345 1163781    71887 
##  7 KAMLOOPS A        51423 NA               BC     50.7  -120   345 1163781    71887 
##  8 KAMLOOPS A        51423 NA               BC     50.7  -120   345 1163781    71887 
##  9 KAMLOOPS A        51423 NA               BC     50.7  -120   345 1163781    71887 
## 10 KAMLOOPS A        51423 NA               BC     50.7  -120   345 1163781    71887 
## # ... with 1,094 more rows, and 26 more variables

You can also download data from multiple stations at once:

kam.pg <- weather_dl(station_ids = c(48248, 51423), start = "2016-01-01", end = "2016-02-15")
                    
kam.pg

## # A tibble: 2,208 x 35
##    station_name     station_id station_operator prov    lat   lon  elev climate_id WMO_id
##  * <chr>                 <dbl> <lgl>            <fct> <dbl> <dbl> <dbl> <chr>      <chr> 
##  1 PRINCE GEORGE A…      48248 NA               BC     53.9  -123   680 1096453    71302 
##  2 PRINCE GEORGE A…      48248 NA               BC     53.9  -123   680 1096453    71302 
##  3 PRINCE GEORGE A…      48248 NA               BC     53.9  -123   680 1096453    71302 
##  4 PRINCE GEORGE A…      48248 NA               BC     53.9  -123   680 1096453    71302 
##  5 PRINCE GEORGE A…      48248 NA               BC     53.9  -123   680 1096453    71302 
##  6 PRINCE GEORGE A…      48248 NA               BC     53.9  -123   680 1096453    71302 
##  7 PRINCE GEORGE A…      48248 NA               BC     53.9  -123   680 1096453    71302 
##  8 PRINCE GEORGE A…      48248 NA               BC     53.9  -123   680 1096453    71302 
##  9 PRINCE GEORGE A…      48248 NA               BC     53.9  -123   680 1096453    71302 
## 10 PRINCE GEORGE A…      48248 NA               BC     53.9  -123   680 1096453    71302 
## # ... with 2,198 more rows, and 26 more variables
…
Or you can use the vector created above:

stn_vec_df <- weather_dl(station_ids = stn_vector, start = "2016-01-01", end = "2016-02-15")

stn_vec_df

## # A tibble: 3,312 x 35
##    station_name station_id station_operator prov    lat   lon  elev climate_id WMO_id
##  * <chr>        <chr>      <lgl>            <fct> <dbl> <dbl> <dbl> <chr>      <chr> 
##  1 NELSON CS    6839       NA               BC     49.5  -117   535 1145M29    71776 
##  2 NELSON CS    6839       NA               BC     49.5  -117   535 1145M29    71776 
##  3 NELSON CS    6839       NA               BC     49.5  -117   535 1145M29    71776 
##  4 NELSON CS    6839       NA               BC     49.5  -117   535 1145M29    71776 
##  5 NELSON CS    6839       NA               BC     49.5  -117   535 1145M29    71776 
##  6 NELSON CS    6839       NA               BC     49.5  -117   535 1145M29    71776 
##  7 NELSON CS    6839       NA               BC     49.5  -117   535 1145M29    71776 
##  8 NELSON CS    6839       NA               BC     49.5  -117   535 1145M29    71776 
##  9 NELSON CS    6839       NA               BC     49.5  -117   535 1145M29    71776 
## 10 NELSON CS    6839       NA               BC     49.5  -117   535 1145M29    71776 
## # ... with 3,302 more rows, and 26 more variables
…
