Get available stations — stations_dl • weathercan
…
    Examples

 # Update stations data frame
 s <- stations_dl()
#> According to Environment Canada, Modified Date: 2018-07-02 01:31 UTC
#> Environment Canada Disclaimers:
#> "Station Inventory Disclaimer: Please note that this inventory list is a snapshot of stations on our website as of the modified date, and may be subject to change without notice."
#> "Station ID Disclaimer: Station IDs are an internal index numbering system and may be subject to change without notice."

 # Use new data frame to search for stations
 stations_search("Winnipeg", stn = s)
#> # A tibble: 84 x 12
#>    prov  station_name      station_id climate_id WMO_id TC_id   lat   lon  elev
#>    <fct> <chr>             <fct>      <fct>      <fct>  <fct> <dbl> <dbl> <dbl>
#>  1 MB    WINNIPEG A CS     27174      502S001    71849  XWG    49.9 -97.2   239
#>  2 MB    WINNIPEG A CS     27174      502S001    71849  XWG    49.9 -97.2   239
#>  3 MB    WINNIPEG A CS     27174      502S001    71849  XWG    49.9 -97.2   239
#>  4 MB    WINNIPEG A FIRE … 27525      5023223    <NA>   <NA>   49.9 -97.2   239
#>  5 MB    WINNIPEG A FIRE … 27525      5023223    <NA>   <NA>   49.9 -97.2   239
#>  6 MB    WINNIPEG ANDERSO… 3689       5023170    <NA>   <NA>   49.9 -97.2    NA
#>  7 MB    WINNIPEG ANDERSO… 3689       5023170    <NA>   <NA>   49.9 -97.2    NA
#>  8 MB    WINNIPEG ASSINIB… 3690       5023174    <NA>   <NA>   49.9 -97.2   229
#>  9 MB    WINNIPEG ASSINIB… 3690       5023174    <NA>   <NA>   49.9 -97.2   229
#> 10 MB    WINNIPEG BLUMBER… 3691       5023178    <NA>   <NA>   49.9 -97.4   236
#> # ... with 74 more rows, and 3 more variables: interval <chr>, start <int>,
#> #   end <int>
…
