Search for stations by name or location — stations_search • weathercan
…
      quiet
      Logical. Suppress all messages (including messages regarding
missing data, etc.)

    Value

    Returns a subset of the stations data frame which match the search
  parameters. If the search was by location, an extra column 'distance' shows
  the distance in kilometres from the location to the station

    Examples

stations_search(name = "Kamloops")
#> # A tibble: 40 x 12
#>      prov         station_name station_id climate_id WMO_id  TC_id   lat
#>    <fctr>                <chr>     <fctr>     <fctr> <fctr> <fctr> <dbl>
#>  1     BC             KAMLOOPS       1274    1163779     NA     NA 50.67
#>  2     BC             KAMLOOPS       1274    1163779     NA     NA 50.67
#>  3     BC           KAMLOOPS A       1275    1163780  71887    YKA 50.70
#>  4     BC           KAMLOOPS A       1275    1163780  71887    YKA 50.70
#>  5     BC           KAMLOOPS A       1275    1163780  71887    YKA 50.70
#>  6     BC           KAMLOOPS A      51423    1163781  71887    YKA 50.70
#>  7     BC           KAMLOOPS A      51423    1163781  71887    YKA 50.70
#>  8     BC KAMLOOPS AFTON MINES       1276    1163790     NA     NA 50.67
#>  9     BC KAMLOOPS AFTON MINES       1276    1163790     NA     NA 50.67
#> 10     BC         KAMLOOPS AUT      42203    1163842  71741    ZKA 50.70
#> # ... with 30 more rows, and 5 more variables: lon <dbl>, elev <dbl>,
#> #   interval <chr>, start <int>, end <int>
…
