Interpolating • weathercan
…
finches_temperature %>%
  select(date, time, temp) %>%
  filter(is.na(temp))

## # A tibble: 246 × 3
##    date       time                 temp
##    <date>     <dttm>              <dbl>
##  1 2016-03-11 2016-03-11 00:08:01    NA
##  2 2016-03-11 2016-03-11 00:08:03    NA
##  3 2016-03-11 2016-03-11 00:08:04    NA
##  4 2016-03-11 2016-03-11 00:08:06    NA
##  5 2016-03-11 2016-03-11 00:22:42    NA
##  6 2016-03-11 2016-03-11 00:22:43    NA
##  7 2016-03-11 2016-03-11 00:22:45    NA
##  8 2016-03-11 2016-03-11 00:22:53    NA
##  9 2016-03-11 2016-03-11 00:22:54    NA
## 10 2016-03-11 2016-03-11 00:23:56    NA
## # ℹ 236 more rows
…
