Climate Normals • weathercan
…
If you haven’t already created a cache folder, weathercan will prompt
you to do so. Otherwise normals_dl() will load, format and
filter the cached data to the climate ids specified.

n <- normals_dl(climate_ids = "5023222")

## The most current normals available for download by weathercan are '1991-2020'

## Using composite locations: WINNIPEG RICHARDSON (AIRPORT)

n

## # A tibble: 325 × 314
##    location_name            prov  composite_stations period_of_record element_group period
##    <chr>                    <chr> <chr>              <chr>            <chr>         <chr> 
##  1 WINNIPEG RICHARDSON (AI… MB    WINNIPEG A CS (50… Normal           Temperature   Jan   
##  2 WINNIPEG RICHARDSON (AI… MB    WINNIPEG A CS (50… Normal           Temperature   Feb   
##  3 WINNIPEG RICHARDSON (AI… MB    WINNIPEG A CS (50… Normal           Temperature   Mar   
##  4 WINNIPEG RICHARDSON (AI… MB    WINNIPEG A CS (50… Normal           Temperature   Apr   
##  5 WINNIPEG RICHARDSON (AI… MB    WINNIPEG A CS (50… Normal           Temperature   May   
##  6 WINNIPEG RICHARDSON (AI… MB    WINNIPEG A CS (50… Normal           Temperature   Jun   
##  7 WINNIPEG RICHARDSON (AI… MB    WINNIPEG A CS (50… Normal           Temperature   Jul   
##  8 WINNIPEG RICHARDSON (AI… MB    WINNIPEG A CS (50… Normal           Temperature   Aug   
##  9 WINNIPEG RICHARDSON (AI… MB    WINNIPEG A CS (50… Normal           Temperature   Sep   
## 10 WINNIPEG RICHARDSON (AI… MB    WINNIPEG A CS (50… Normal           Temperature   Oct   
## # ℹ 315 more rows
…
## [1] "~/.local/share/weathercan/1991-2020_Canadian_Climate_Normals_CANADA_Data.csv"

n_orig <- read_csv(normals_file())

## Rows: 69068 Columns: 19
## ── Column specification ──────────────────────────────────────────────────────────────────
## Delimiter: ","
## chr (19): LOCATION_NAME, PROVINCE_OR_TERRITORY, PERIOD_OF_RECORD, ELEMENT_GROUP, NORMA...
## 
## ℹ Use `spec()` to retrieve the full column specification for this data.
## ℹ Specify the column types or set `show_col_types = FALSE` to quiet this message.

n_orig

## # A tibble: 69,068 × 19
##    LOCATION_NAME PROVINCE_OR_TERRITORY PERIOD_OF_RECORD ELEMENT_GROUP NORMALS_ELEMENT     
##    <chr>         <chr>                 <chr>            <chr>         <chr>               
##  1 BANFF         AB                    Normal           Temperature   Daily Average (°C)  
##  2 BANFF         AB                    Normal           Temperature   StdDev Mean Monthly…
##  3 BANFF         AB                    Normal           Temperature   Daily Maximum (°C)  
##  4 BANFF         AB                    Normal           Temperature   Daily Minimum (°C)  
##  5 BANFF         AB                    Normal           Temperature   Maximum Daily Mean …
##  6 BANFF         AB                    Normal           Temperature   Maximum Daily Mean …
##  7 BANFF         AB                    Normal           Temperature   Minimum Daily Mean …
##  8 BANFF         AB                    Normal           Temperature   Minimum Daily Mean …
##  9 BANFF         AB                    Normal           Temperature   Extreme Maximum (°C)
## 10 BANFF         AB                    Normal           Temperature   Extreme Maximum (°C…
## # ℹ 69,058 more rows
…
Finding stations with specific measurements

The included data frame, normals_measurements contains a
list of stations with their corresponding measurements. Be aware that
this data might be out of date!

normals_measurements

## # A tibble: 376,959 × 6
##    prov  station_name climate_id                normals   measurement_type measurement    
##    <chr> <chr>        <chr>                     <chr>     <chr>            <chr>          
##  1 AB    BANFF        3050520, 3050521, 3050519 1991-2020 Temperature      daily_average_c
##  2 AB    BANFF        3050520, 3050521, 3050519 1991-2020 Temperature      stddev_mean_mo…
##  3 AB    BANFF        3050520, 3050521, 3050519 1991-2020 Temperature      daily_maximum_c
##  4 AB    BANFF        3050520, 3050521, 3050519 1991-2020 Temperature      daily_minimum_c
##  5 AB    BANFF        3050520, 3050521, 3050519 1991-2020 Temperature      maximum_daily_…
##  6 AB    BANFF        3050520, 3050521, 3050519 1991-2020 Temperature      maximum_daily_…
##  7 AB    BANFF        3050520, 3050521, 3050519 1991-2020 Temperature      minimum_daily_…
##  8 AB    BANFF        3050520, 3050521, 3050519 1991-2020 Temperature      minimum_daily_…
##  9 AB    BANFF        3050520, 3050521, 3050519 1991-2020 Temperature      extreme_maximu…
## 10 AB    BANFF        3050520, 3050521, 3050519 1991-2020 Temperature      extreme_maximu…
## # ℹ 376,949 more rows
Because the new climate normals are so different from previous years,
they include different measurements which are organized by
measurement_type. In older normals years,
measurement_type is NA.

For example, if you wanted all climate_ids for stations
that have data on temperature for 1991-2020 normals:

library(stringr) # text pattern matching

# Have a quick look
normals_measurements |>
  filter(str_detect(measurement_type, "Temp"), normals == "1991-2020")

## # A tibble: 21,528 × 6
##    prov  station_name climate_id                normals   measurement_type measurement    
##    <chr> <chr>        <chr>                     <chr>     <chr>            <chr>          
##  1 AB    BANFF        3050520, 3050521, 3050519 1991-2020 Temperature      daily_average_c
##  2 AB    BANFF        3050520, 3050521, 3050519 1991-2020 Temperature      stddev_mean_mo…
##  3 AB    BANFF        3050520, 3050521, 3050519 1991-2020 Temperature      daily_maximum_c
##  4 AB    BANFF        3050520, 3050521, 3050519 1991-2020 Temperature      daily_minimum_c
##  5 AB    BANFF        3050520, 3050521, 3050519 1991-2020 Temperature      maximum_daily_…
##  6 AB    BANFF        3050520, 3050521, 3050519 1991-2020 Temperature      maximum_daily_…
##  7 AB    BANFF        3050520, 3050521, 3050519 1991-2020 Temperature      minimum_daily_…
##  8 AB    BANFF        3050520, 3050521, 3050519 1991-2020 Temperature      minimum_daily_…
##  9 AB    BANFF        3050520, 3050521, 3050519 1991-2020 Temperature      extreme_maximu…
## 10 AB    BANFF        3050520, 3050521, 3050519 1991-2020 Temperature      extreme_maximu…
## # ℹ 21,518 more rows

ids <- normals_measurements |>
  filter(str_detect(measurement_type, "Temp"), normals == "1991-2020") |>
  pull(climate_id) |>
  unique()

Alternatively, if you wanted all climate_ids for
stations that have data on soil temperature for 1981-2010 normals (which
is no longer available in the 1991-2020 normals):

# Have a quick look
normals_measurements |>
  filter(stringr::str_detect(measurement, "soil"), normals == "1981-2010")

## # A tibble: 314 × 6
##    prov  station_name    climate_id normals   measurement_type measurement          
##    <chr> <chr>           <chr>      <chr>     <chr>            <chr>                
##  1 AB    BEAVERLODGE CDA 3070560    1981-2010 <NA>             soil_temp_am_5       
##  2 AB    BEAVERLODGE CDA 3070560    1981-2010 <NA>             soil_temp_am_5_code  
##  3 AB    BEAVERLODGE CDA 3070560    1981-2010 <NA>             soil_temp_am_10      
##  4 AB    BEAVERLODGE CDA 3070560    1981-2010 <NA>             soil_temp_am_10_code 
##  5 AB    BEAVERLODGE CDA 3070560    1981-2010 <NA>             soil_temp_am_20      
##  6 AB    BEAVERLODGE CDA 3070560    1981-2010 <NA>             soil_temp_am_20_code 
##  7 AB    BEAVERLODGE CDA 3070560    1981-2010 <NA>             soil_temp_am_50      
##  8 AB    BEAVERLODGE CDA 3070560    1981-2010 <NA>             soil_temp_am_50_code 
##  9 AB    BEAVERLODGE CDA 3070560    1981-2010 <NA>             soil_temp_am_100     
## 10 AB    BEAVERLODGE CDA 3070560    1981-2010 <NA>             soil_temp_am_100_code
## # ℹ 304 more rows
…
