…
You can look through this data frame directly, or you can use the
`stations_search` function:

``` r

stations_search("Kamloops")
```

    ## # A tibble: 40 × 17
    ##    prov  station_name         station_id climate_id WMO_id TC_id   lat   lon  elev tz        interval start   end normals normals_1991_2020 normals_1981_2010
    ##    <chr> <chr>                     <dbl> <chr>       <dbl> <chr> <dbl> <dbl> <dbl> <chr>     <fct>    <dbl> <dbl> <lgl>   <lgl>             <lgl>            
    ##  1 BC    KAMLOOPS                   1274 1163779        NA <NA>   50.7 -120.  379. Etc/GMT+8 day       1878  1982 FALSE   FALSE             FALSE            
    ##  2 BC    KAMLOOPS                   1274 1163779        NA <NA>   50.7 -120.  379. Etc/GMT+8 month     1878  1982 FALSE   FALSE             FALSE            
    ##  3 BC    KAMLOOPS A                 1275 1163780     71887 YKA    50.7 -120.  345. Etc/GMT+8 hour      1953  2013 TRUE    TRUE              TRUE             
    ##  4 BC    KAMLOOPS A                 1275 1163780     71887 YKA    50.7 -120.  345. Etc/GMT+8 day       1951  2013 TRUE    TRUE              TRUE             
    ##  5 BC    KAMLOOPS A                 1275 1163780     71887 YKA    50.7 -120.  345. Etc/GMT+8 month     1951  2013 TRUE    TRUE              TRUE             
    ##  6 BC    KAMLOOPS A                51423 1163781     71887 YKA    50.7 -120.  345. Etc/GMT+8 hour      2013  2026 TRUE    TRUE              FALSE            
    ##  7 BC    KAMLOOPS A                51423 1163781     71887 YKA    50.7 -120.  345. Etc/GMT+8 day       2013  2026 TRUE    TRUE              FALSE            
    ##  8 BC    KAMLOOPS AFTON MINES       1276 1163790        NA <NA>   50.7 -120.  701  Etc/GMT+8 day       1977  1993 TRUE    FALSE             FALSE            
    ##  9 BC    KAMLOOPS AFTON MINES       1276 1163790        NA <NA>   50.7 -120.  701  Etc/GMT+8 month     1977  1993 TRUE    FALSE             FALSE            
    ## 10 BC    KAMLOOPS AUT              42203 1163842     71741 ZKA    50.7 -120.  345  Etc/GMT+8 hour      2006  2026 TRUE    TRUE              FALSE            
    ## # ℹ 30 more rows
    ## # ℹ 1 more variable: normals_1971_2000 <lgl>
…
You can specify more than one interval:

``` r

stations_search("Kamloops", interval = c("hour", "month"))
```

    ## # A tibble: 21 × 17
    ##    prov  station_name            station_id climate_id WMO_id TC_id   lat   lon  elev tz        interval start   end normals normals_1991_2020 normals_1981_2010
    ##    <chr> <chr>                        <dbl> <chr>       <dbl> <chr> <dbl> <dbl> <dbl> <chr>     <fct>    <dbl> <dbl> <lgl>   <lgl>             <lgl>            
    ##  1 BC    KAMLOOPS                      1274 1163779        NA <NA>   50.7 -120.  379. Etc/GMT+8 month     1878  1982 FALSE   FALSE             FALSE            
    ##  2 BC    KAMLOOPS A                    1275 1163780     71887 YKA    50.7 -120.  345. Etc/GMT+8 hour      1953  2013 TRUE    TRUE              TRUE             
    ##  3 BC    KAMLOOPS A                    1275 1163780     71887 YKA    50.7 -120.  345. Etc/GMT+8 month     1951  2013 TRUE    TRUE              TRUE             
    ##  4 BC    KAMLOOPS A                   51423 1163781     71887 YKA    50.7 -120.  345. Etc/GMT+8 hour      2013  2026 TRUE    TRUE              FALSE            
    ##  5 BC    KAMLOOPS AFTON MINES          1276 1163790        NA <NA>   50.7 -120.  701  Etc/GMT+8 month     1977  1993 TRUE    FALSE             FALSE            
    ##  6 BC    KAMLOOPS AUT                 42203 1163842     71741 ZKA    50.7 -120.  345  Etc/GMT+8 hour      2006  2026 TRUE    TRUE              FALSE            
    ##  7 BC    KAMLOOPS AUT                 42203 1163842     71741 ZKA    50.7 -120.  345  Etc/GMT+8 month     2006  2006 TRUE    TRUE              FALSE            
    ##  8 BC    KAMLOOPS CDA                  1277 1163810        NA <NA>   50.7 -120.  345  Etc/GMT+8 month     1949  1977 FALSE   FALSE             FALSE            
    ##  9 BC    KAMLOOPS CHERRY CREEK         1278 1163814        NA <NA>   50.7 -121.  556. Etc/GMT+8 month     1970  1974 FALSE   FALSE             FALSE            
    ## 10 BC    KAMLOOPS CHERRY CREEK 2       1279 1163815        NA <NA>   50.6 -121.  701  Etc/GMT+8 month     1974  1977 FALSE   FALSE             FALSE            
    ## # ℹ 11 more rows
    ## # ℹ 1 more variable: normals_1971_2000 <lgl>
…
``` r

kam <- weather_dl(station_ids = 51423, start = "2016-01-01", end = "2016-02-15")
```

    ## As of weathercan v0.3.0 time display is either local time or UTC See Details under 
    ## is shown once per session

``` r

kam
```

    ## # A tibble: 1,104 × 38
    ##    station_name station_id station_operator prov    lat   lon  elev climate_id WMO_id TC_id date       time                 year month   day hour   qual   temp
    ##    <chr>             <dbl> <lgl>            <chr> <dbl> <dbl> <dbl> <chr>      <chr>  <chr> <date>     <dttm>              <dbl> <int> <int> <time> <chr> <dbl>
    ##  1 KAMLOOPS A        51423 NA               BC     50.7 -120.  345. 1163781    71887  YKA   2016-01-01 2016-01-01 00:00:00  2016     1     1 00:00  <NA>   -9.1
    ##  2 KAMLOOPS A        51423 NA               BC     50.7 -120.  345. 1163781    71887  YKA   2016-01-01 2016-01-01 01:00:00  2016     1     1 01:00  <NA>   -9.6
    ##  3 KAMLOOPS A        51423 NA               BC     50.7 -120.  345. 1163781    71887  YKA   2016-01-01 2016-01-01 02:00:00  2016     1     1 02:00  <NA>   -9.9
    ##  4 KAMLOOPS A        51423 NA               BC     50.7 -120.  345. 1163781    71887  YKA   2016-01-01 2016-01-01 03:00:00  2016     1     1 03:00  <NA>   -9.5
    ##  5 KAMLOOPS A        51423 NA               BC     50.7 -120.  345. 1163781    71887  YKA   2016-01-01 2016-01-01 04:00:00  2016     1     1 04:00  <NA>   -9.4
    ##  6 KAMLOOPS A        51423 NA               BC     50.7 -120.  345. 1163781    71887  YKA   2016-01-01 2016-01-01 05:00:00  2016     1     1 05:00  <NA>   -9.8
    ##  7 KAMLOOPS A        51423 NA               BC     50.7 -120.  345. 1163781    71887  YKA   2016-01-01 2016-01-01 06:00:00  2016     1     1 06:00  <NA>  -10  
    ##  8 KAMLOOPS A        51423 NA               BC     50.7 -120.  345. 1163781    71887  YKA   2016-01-01 2016-01-01 07:00:00  2016     1     1 07:00  <NA>  -10.2
    ##  9 KAMLOOPS A        51423 NA               BC     50.7 -120.  345. 1163781    71887  YKA   2016-01-01 2016-01-01 08:00:00  2016     1     1 08:00  <NA>  -10.1
    ## 10 KAMLOOPS A        51423 NA               BC     50.7 -120.  345. 1163781    71887  YKA   2016-01-01 2016-01-01 09:00:00  2016     1     1 09:00  <NA>   -9.7
    ## # ℹ 1,094 more rows
    ## # ℹ 20 more variables: temp_flag <chr>, temp_dew <dbl>, temp_dew_flag <chr>, rel_hum <dbl>, rel_hum_flag <chr>, precip_amt <dbl>, precip_amt_flag <chr>,
    ## #   wind_dir <dbl>, wind_dir_flag <chr>, wind_spd <dbl>, wind_spd_flag <chr>, visib <dbl>, visib_flag <chr>, pressure <dbl>, pressure_flag <chr>, hmdx <dbl>,
    ## #   hmdx_flag <chr>, wind_chill <dbl>, wind_chill_flag <chr>, weather <chr>

You can also download data from multiple stations at once:

``` r

kam.pg <- weather_dl(
  station_ids = c(48248, 51423),
  start = "2016-01-01",
  end = "2016-02-15"
)

kam.pg
```

    ## # A tibble: 2,208 × 38
    ##    station_name   station_id station_operator prov    lat   lon  elev climate_id WMO_id TC_id date       time                 year month   day hour  qual   temp
    ##    <chr>               <dbl> <lgl>            <chr> <dbl> <dbl> <dbl> <chr>      <chr>  <chr> <date>     <dttm>              <dbl> <int> <int> <tim> <chr> <dbl>
    ##  1 PRINCE GEORGE…      48248 NA               BC     53.9 -123.   680 1096453    71302  VXS   2016-01-01 2016-01-01 00:00:00  2016     1     1 00:00 <NA>  -21.2
    ##  2 PRINCE GEORGE…      48248 NA               BC     53.9 -123.   680 1096453    71302  VXS   2016-01-01 2016-01-01 01:00:00  2016     1     1 01:00 <NA>  -21.4
    ##  3 PRINCE GEORGE…      48248 NA               BC     53.9 -123.   680 1096453    71302  VXS   2016-01-01 2016-01-01 02:00:00  2016     1     1 02:00 <NA>  -22.8
    ##  4 PRINCE GEORGE…      48248 NA               BC     53.9 -123.   680 1096453    71302  VXS   2016-01-01 2016-01-01 03:00:00  2016     1     1 03:00 <NA>  -23.1
    ##  5 PRINCE GEORGE…      48248 NA               BC     53.9 -123.   680 1096453    71302  VXS   2016-01-01 2016-01-01 04:00:00  2016     1     1 04:00 <NA>  -22.9
    ##  6 PRINCE GEORGE…      48248 NA               BC     53.9 -123.   680 1096453    71302  VXS   2016-01-01 2016-01-01 05:00:00  2016     1     1 05:00 <NA>  -24.2
    ##  7 PRINCE GEORGE…      48248 NA               BC     53.9 -123.   680 1096453    71302  VXS   2016-01-01 2016-01-01 06:00:00  2016     1     1 06:00 <NA>  -21.8
    ##  8 PRINCE GEORGE…      48248 NA               BC     53.9 -123.   680 1096453    71302  VXS   2016-01-01 2016-01-01 07:00:00  2016     1     1 07:00 <NA>  -22.7
    ##  9 PRINCE GEORGE…      48248 NA               BC     53.9 -123.   680 1096453    71302  VXS   2016-01-01 2016-01-01 08:00:00  2016     1     1 08:00 <NA>  -22.7
    ## 10 PRINCE GEORGE…      48248 NA               BC     53.9 -123.   680 1096453    71302  VXS   2016-01-01 2016-01-01 09:00:00  2016     1     1 09:00 <NA>  -22.9
    ## # ℹ 2,198 more rows
    ## # ℹ 20 more variables: temp_flag <chr>, temp_dew <dbl>, temp_dew_flag <chr>, rel_hum <dbl>, rel_hum_flag <chr>, precip_amt <dbl>, precip_amt_flag <chr>,
    ## #   wind_dir <dbl>, wind_dir_flag <chr>, wind_spd <dbl>, wind_spd_flag <chr>, visib <dbl>, visib_flag <chr>, pressure <dbl>, pressure_flag <chr>, hmdx <dbl>,
    ## #   hmdx_flag <chr>, wind_chill <dbl>, wind_chill_flag <chr>, weather <chr>
…
Or you can use the vector created above:

``` r

stn_vec_df <- weather_dl(
  station_ids = stn_vector,
  start = "2016-01-01",
  end = "2016-02-15"
)

stn_vec_df
```

    ## # A tibble: 3,312 × 38
    ##    station_name   station_id station_operator prov    lat   lon  elev climate_id WMO_id TC_id date       time                 year month   day hour  qual   temp
    ##    <chr>               <dbl> <lgl>            <chr> <dbl> <dbl> <dbl> <chr>      <chr>  <chr> <date>     <dttm>              <dbl> <int> <int> <tim> <chr> <dbl>
    ##  1 CRESTON CAMPB…       6838 NA               BC     49.1 -116.  641. 114B1F0    71770  WJR   2016-01-01 2016-01-01 00:00:00  2016     1     1 00:00 <NA>   -7.2
    ##  2 CRESTON CAMPB…       6838 NA               BC     49.1 -116.  641. 114B1F0    71770  WJR   2016-01-01 2016-01-01 01:00:00  2016     1     1 01:00 <NA>   -7.8
    ##  3 CRESTON CAMPB…       6838 NA               BC     49.1 -116.  641. 114B1F0    71770  WJR   2016-01-01 2016-01-01 02:00:00  2016     1     1 02:00 <NA>   -8  
    ##  4 CRESTON CAMPB…       6838 NA               BC     49.1 -116.  641. 114B1F0    71770  WJR   2016-01-01 2016-01-01 03:00:00  2016     1     1 03:00 <NA>   -8.1
    ##  5 CRESTON CAMPB…       6838 NA               BC     49.1 -116.  641. 114B1F0    71770  WJR   2016-01-01 2016-01-01 04:00:00  2016     1     1 04:00 <NA>   -8.4
    ##  6 CRESTON CAMPB…       6838 NA               BC     49.1 -116.  641. 114B1F0    71770  WJR   2016-01-01 2016-01-01 05:00:00  2016     1     1 05:00 <NA>   -8.5
    ##  7 CRESTON CAMPB…       6838 NA               BC     49.1 -116.  641. 114B1F0    71770  WJR   2016-01-01 2016-01-01 06:00:00  2016     1     1 06:00 <NA>   -8.9
    ##  8 CRESTON CAMPB…       6838 NA               BC     49.1 -116.  641. 114B1F0    71770  WJR   2016-01-01 2016-01-01 07:00:00  2016     1     1 07:00 <NA>   -9.1
    ##  9 CRESTON CAMPB…       6838 NA               BC     49.1 -116.  641. 114B1F0    71770  WJR   2016-01-01 2016-01-01 08:00:00  2016     1     1 08:00 <NA>   -9.2
    ## 10 CRESTON CAMPB…       6838 NA               BC     49.1 -116.  641. 114B1F0    71770  WJR   2016-01-01 2016-01-01 09:00:00  2016     1     1 09:00 <NA>   -9.5
    ## # ℹ 3,302 more rows
    ## # ℹ 20 more variables: temp_flag <chr>, temp_dew <dbl>, temp_dew_flag <chr>, rel_hum <dbl>, rel_hum_flag <chr>, precip_amt <dbl>, precip_amt_flag <chr>,
    ## #   wind_dir <dbl>, wind_dir_flag <chr>, wind_spd <dbl>, wind_spd_flag <chr>, visib <dbl>, visib_flag <chr>, pressure <dbl>, pressure_flag <chr>, hmdx <dbl>,
    ## #   hmdx_flag <chr>, wind_chill <dbl>, wind_chill_flag <chr>, weather <lgl>
…
``` r

n <- normals_dl("5023222")
```

    ## The most current normals available for download by weathercan are '1991-2020'
    ## Using composite locations: WINNIPEG RICHARDSON (AIRPORT)

``` r

n
```

    ## # A tibble: 26 × 313
    ##    location_name             prov  composite_stations period_of_record period daily_average_c daily_average_c_code stddev_mean_monthly_…¹ stddev_mean_monthly_…²
    ##    <chr>                     <chr> <chr>              <chr>            <chr>            <dbl> <chr>                                 <dbl> <chr>                 
    ##  1 WINNIPEG RICHARDSON (AIR… MB    WINNIPEG A CS (50… Normal           Jan              -16.3 A                                       3.6 A                     
    ##  2 WINNIPEG RICHARDSON (AIR… MB    WINNIPEG A CS (50… Normal           Feb              -14.1 A                                       4   A                     
    ##  3 WINNIPEG RICHARDSON (AIR… MB    WINNIPEG A CS (50… Normal           Mar               -6.1 A                                       3.7 A                     
    ##  4 WINNIPEG RICHARDSON (AIR… MB    WINNIPEG A CS (50… Normal           Apr                3.8 A                                       2.9 A                     
    ##  5 WINNIPEG RICHARDSON (AIR… MB    WINNIPEG A CS (50… Normal           May               11.1 A                                       1.9 A                     
    ##  6 WINNIPEG RICHARDSON (AIR… MB    WINNIPEG A CS (50… Normal           Jun               17.1 A                                       1.5 A                     
    ##  7 WINNIPEG RICHARDSON (AIR… MB    WINNIPEG A CS (50… Normal           Jul               19.5 A                                       1.4 A                     
    ##  8 WINNIPEG RICHARDSON (AIR… MB    WINNIPEG A CS (50… Normal           Aug               18.7 A                                       1.5 A                     
    ##  9 WINNIPEG RICHARDSON (AIR… MB    WINNIPEG A CS (50… Normal           Sep               13.3 A                                       1.6 A                     
    ## 10 WINNIPEG RICHARDSON (AIR… MB    WINNIPEG A CS (50… Normal           Oct                5.1 A                                       2.1 A                     
    ## # ℹ 16 more rows
    ## # ℹ abbreviated names: ¹​stddev_mean_monthly_temperature_c, ²​stddev_mean_monthly_temperature_c_code
    ## # ℹ 304 more variables: daily_maximum_c <dbl>, daily_maximum_c_code <chr>, daily_minimum_c <dbl>, daily_minimum_c_code <chr>, maximum_daily_mean_c <dbl>,
    ## #   maximum_daily_mean_c_code <lgl>, maximum_daily_mean_c_date <date>, maximum_daily_mean_c_date_code <lgl>, minimum_daily_mean_c <dbl>,
    ## #   minimum_daily_mean_c_code <lgl>, minimum_daily_mean_c_date <date>, minimum_daily_mean_c_date_code <lgl>, extreme_maximum_c <dbl>,
    ## #   extreme_maximum_c_code <lgl>, extreme_maximum_c_date <date>, extreme_maximum_c_date_code <lgl>, minimum_daily_maximum_c <dbl>,
    ## #   minimum_daily_maximum_c_code <lgl>, minimum_daily_maximum_c_date <date>, minimum_daily_maximum_c_date_code <lgl>, maximum_daily_minimum_c <dbl>, …
…
